%YAML 1.1
%TAG !u! tag:unity3d.com,2011:
--- !u!1045 &1
EditorBuildSettings:
  m_ObjectHideFlags: 0
  serializedVersion: 2
  m_Scenes:
  - enabled: 0
    path: Assets/Game/Scenes/01_blocking.unity
    guid: 2b082ef2694ff1045ae1f16a38120bfe
  - enabled: 1
    path: Assets/Game/Scenes/01_blocking_interior.unity
    guid: 9776b0bdb97826b44b652db1d04bfec7
  - enabled: 1
    path: Assets/Game/Scenes/00_LifeControllerStartup 1.unity
    guid: 451415cdd014167479fa9137cb1a1df2
  - enabled: 0
    path: Assets/Game/Scenes/01_blocking_v2.unity
    guid: 7d8e8c136360fc34b9b4228fef9d84fa
  - enabled: 1
    path: Assets/SampleScenes/Scenes/2dCharacter.unity
    guid: e64703861e6c7d748bab0c2dee48b08d
  - enabled: 1
    path: Assets/SampleScenes/Scenes/AircraftJet2Axis.unity
    guid: 1648d99da5b4a7c4582afcd4b5660f01
  - enabled: 1
    path: Assets/SampleScenes/Scenes/AircraftJetAI.unity
    guid: 363861c29c39f0e4bb36d75975950302
  - enabled: 1
    path: Assets/SampleScenes/Scenes/AircraftPropeller4Axis.unity
    guid: 5bda8cddff6467b49826e3ff2a374f49
  - enabled: 1
    path: Assets/SampleScenes/Scenes/AircraftPropellerAI.unity
    guid: e1ee66940de9023479566432a1a00132
  - enabled: 1
    path: Assets/AllSkyFree/Overcast Low/AllSky_Overcast4_Low.unity
    guid: 5d6a31542c4b5409faf229e819f55341
  - enabled: 1
    path: Assets/AllSkyFree/Space_AnotherPlanet/AllSky_Space_AnotherPlanet.unity
    guid: 32897540bc73941088749c21da202563
  - enabled: 1
    path: Assets/SampleScenes/Scenes/Car.unity
    guid: 41b8fdb98491fab48a0cd641d4c0e3b1
  - enabled: 1
    path: Assets/SampleScenes/Scenes/CarAIWaypointBased.unity
    guid: 81ce53b350e0a3247ae838c0d57967ab
  - enabled: 1
    path: Assets/AllSkyFree/Cartoon Base NightSky/Cartoon Base NightSky.unity
    guid: c4ac93a9f488344c29ac272cddb55dda
  - enabled: 1
    path: Assets/SampleScenes/Scenes/CharacterFirstPerson.unity
    guid: f2f18f678332b48458bb0e9c5ab081bf
  - enabled: 1
    path: Assets/SampleScenes/Scenes/CharacterThirdPerson.unity
    guid: 0cb5d44a4c963f145acdb0a0c95d9d1b
  - enabled: 1
    path: Assets/SampleScenes/Scenes/CharacterThirdPersonAI.unity
    guid: 17382a6997de5bf4a9ca6c4830613498
  - enabled: 1
    path: Assets/AllSkyFree/Cold Night/Cold Night.unity
    guid: 8c6f0d7d2a576443a92d35db4d83c4da
  - enabled: 1
    path: Assets/AllSkyFree/Cold Sunset/Cold Sunset.unity
    guid: f87b863005c8d4abcb743cad9f6566a7
  - enabled: 1
    path: Assets/AllSkyFree/Cartoon Base BlueSky/Day_BlueSky_Nothing.unity
    guid: c227f157df13b418c8ebb9e0b483e121
  - enabled: 1
    path: Assets/AllSkyFree/Deep Dusk/Deep Dusk.unity
    guid: c8a48d1a6bbea47e981602e288f19742
  - enabled: 1
    path: Assets/Photon Unity Networking/Demos/Demo2DJumpAndRunWithPhysics/Demo2DJumpAndRunWithPhysics-Scene.unity
    guid: 2cd8533503c3ea649b6c543c6126c811
  - enabled: 1
    path: Assets/Photon Unity Networking/Demos/DemoBoxes/DemoBoxes-Scene.unity
    guid: 484b70123468e8d47b39976c6516756b
  - enabled: 1
    path: Assets/Photon Unity Networking/Demos/DemoChangeOwner/DemoChangeOwner-Scene.unity
    guid: efb7b18562339d8459d546ede0a9e4cc
  - enabled: 1
    path: Assets/Photon Unity Networking/Demos/DemoChat/DemoChat-Scene.unity
    guid: ec07267f6a28fb044ac89845274e79af
  - enabled: 1
    path: Assets/Photon Unity Networking/Demos/DemoFriendsAndCustomAuth/DemoFriends-Scene.unity
    guid: ce42d7aa47657b740b3200a83d5874c6
  - enabled: 1
    path: Assets/Photon Unity Networking/Demos/DemoHub/DemoHub-Scene-V2.unity
    guid: 7dfd47dc8b9484dd79d8636d8603a9e5
  - enabled: 1
    path: Assets/Photon Unity Networking/Demos/DemoMecanim/DemoMecanim-Scene.unity
    guid: 2fefc96b2a4a31b4092fa7bbea08afaf
  - enabled: 1
    path: Assets/Photon Unity Networking/Demos/DemoPickup/DemoPickup-Scene.unity
    guid: 42026d6c332a6b5438ed37ef7af9fba8
  - enabled: 1
    path: Assets/Photon Unity Networking/Demos/DemoRPGMovement/DemoRPGMovement-Scene.unity
    guid: 04d0690ecf8bf94489c8427dd8186299
  - enabled: 1
    path: Assets/Photon Unity Networking/Demos/DemoRockPaperScissors/DemoRPS-Connect-Scene.unity
    guid: 96da012e5ddf34c42832a2b67bb519a7
  - enabled: 1
    path: Assets/Photon Unity Networking/Demos/DemoRockPaperScissors/DemoRPS-Scene.unity
    guid: 8a3480dd507edcd40b9a02e219e22da6
  - enabled: 1
    path: Assets/Photon Unity Networking/Demos/DemoSynchronization/DemoSynchronization-Scene.unity
    guid: caec1ee6e27780946b8db3d1aebaa478
  - enabled: 1
    path: Assets/Photon Unity Networking/Demos/DemoWorker/DemoWorker-Scene.unity
    guid: d127e961917b252458a9910af185709e
  - enabled: 1
    path: Assets/Photon Unity Networking/Demos/DemoWorker/DemoWorkerGame-Scene.unity
    guid: b2b4086771d6a0e4cab81261c6e6c4f9
  - enabled: 1
    path: Assets/AllSkyFree/Epic_BlueSunset/Epic_BlueSunset.unity
    guid: 28673ec8420b8493e9588ddb0b4ed7b5
  - enabled: 1
    path: Assets/AllSkyFree/Epic_GloriousPink/Epic_GloriousPink.unity
    guid: a6ac75420f93c4fa99b35113a21e4eff
  - enabled: 1
    path: Assets/Scenes/Main.unity
    guid: 163adec682b5ccd4c8dbb7766c20f3fb
  - enabled: 1
    path: Assets/Photon Unity Networking/Demos/MarcoPolo-Tutorial/MarcoPolo-Scene.unity
    guid: 4edb89b81eea36243978d62c589e60ad
  - enabled: 1
    path: Assets/AllSkyFree/Night MoonBurst/Night Moon Burst.unity
    guid: 40af7173f2b2d4f9283c3832d0ebcb31
  - enabled: 1
    path: Assets/SampleScenes/Scenes/Particles.unity
    guid: 9148cc7972b0bc848b21aef88468f740
  - enabled: 1
    path: Assets/Samples/High Definition RP/7.3.1/Particle System Shader Samples/Scenes/ParticleShaderGraphsSampleScene.unity
    guid: 7ab754d4890331d4080f8be2959fa0f5
  - enabled: 1
    path: Assets/Photon Unity Networking/Demos/PunBasics-Tutorial/Scenes/PunBasics-Launcher.unity
    guid: bff77b01b50254edbb6edeeaba5ae8b3
  - enabled: 1
    path: Assets/Photon Unity Networking/Demos/PunBasics-Tutorial/Scenes/PunBasics-Room
      for 1.unity
    guid: 9b8561c6e396849a5ba48c3eb9524049
  - enabled: 1
    path: Assets/Photon Unity Networking/Demos/PunBasics-Tutorial/Scenes/PunBasics-Room
      for 2.unity
    guid: 764428c63577f4580af4ce54ca9f4b1b
  - enabled: 1
    path: Assets/Photon Unity Networking/Demos/PunBasics-Tutorial/Scenes/PunBasics-Room
      for 3.unity
    guid: e07afcca5bf1a41f5bd28f498656b7b8
  - enabled: 1
    path: Assets/Photon Unity Networking/Demos/PunBasics-Tutorial/Scenes/PunBasics-Room
      for 4.unity
    guid: e7a7f9734636d415ca84ef3aaf7680f6
  - enabled: 1
    path: Assets/SampleScenes/Scenes/RollerBall.unity
    guid: 7eaa63fd5f544054c91b4364fe194584
  - enabled: 1
    path: Assets/Samples/High Definition RP/7.3.1/Shader Graph Samples/SampleScene.unity
    guid: a35d5b0d27250b0408483d97aba2aebb
  - enabled: 1
    path: Assets/Scenes/SampleScene.unity
    guid: cbfe36cfddfde964d9dfce63a355d5dd
  - enabled: 1
    path: Assets/Standard Assets/Effects/TessellationShaders/Scenes/TessellationSample.unity
    guid: 31f6763de0920574092c8a69a66c717e
  - enabled: 1
    path: Assets/Game/Scenes/deathmenu.unity
    guid: 85386a70c06f39f4c9152ecaa0f364d4
  m_configObjects: {}
